
DEFINEFN code_t* psyco_insn_settos(code_t* code, int arg1)
{
if (arg1 == 0) {
INSN_EMIT_opcode(23);
INSN_EMIT_void(arg1);
setlatestopcode(23);
return(code);
}
else {
if ((1 <= arg1) && (arg1 <= 255)) {
INSN_EMIT_opcode(24);
INSN_EMIT_byte(arg1);
setlatestopcode(24);
return(code);
}
else {
if (1 <= arg1) {
INSN_EMIT_opcode(25);
INSN_EMIT_int(arg1);
setlatestopcode(25);
return(code);
}
else {
psyco_fatal_msg("invalid_mode(settos)");
return NULL;
}
}
}
}

DEFINEFN code_t* psyco_insn_pushn(code_t* code, word_t arg1)
{
if ((-128 <= arg1) && (arg1 <= 127)) {
INSN_EMIT_opcode(26);
INSN_EMIT_char(arg1);
setlatestopcode(26);
return(code);
}
else {
if (1) {
INSN_EMIT_opcode(27);
INSN_EMIT_word_t(arg1);
setlatestopcode(27);
return(code);
}
else {
psyco_fatal_msg("invalid_mode(pushn)");
return NULL;
}
}
}

DEFINEFN code_t* psyco_insn_immed(code_t* code, word_t arg1)
{
if (arg1 == 0) {
INSN_EMIT_opcode(28);
INSN_EMIT_void(arg1);
setlatestopcode(28);
return(code);
}
else {
if (arg1 == 1) {
INSN_EMIT_opcode(29);
INSN_EMIT_void(arg1);
setlatestopcode(29);
return(code);
}
else {
if ((-128 <= arg1) && (arg1 <= 127)) {
INSN_EMIT_opcode(30);
INSN_EMIT_char(arg1);
setlatestopcode(30);
return(code);
}
else {
if (1) {
INSN_EMIT_opcode(31);
INSN_EMIT_word_t(arg1);
setlatestopcode(31);
return(code);
}
else {
psyco_fatal_msg("invalid_mode(immed)");
return NULL;
}
}
}
}
}

DEFINEFN code_t* psyco_insn_s_push(code_t* code, int arg1)
{
if (arg1 == 0) {
INSN_EMIT_opcode(32);
INSN_EMIT_void(arg1);
setlatestopcode(32);
return(code);
}
else {
if ((1 <= arg1) && (arg1 <= 255)) {
INSN_EMIT_opcode(33);
INSN_EMIT_byte(arg1);
setlatestopcode(33);
return(code);
}
else {
if (1 <= arg1) {
INSN_EMIT_opcode(34);
INSN_EMIT_int(arg1);
setlatestopcode(34);
return(code);
}
else {
psyco_fatal_msg("invalid_mode(s_push)");
return NULL;
}
}
}
}

DEFINEFN code_t* psyco_insn_s_pop(code_t* code, int arg1)
{
if (arg1 == 0) {
INSN_EMIT_opcode(35);
INSN_EMIT_void(arg1);
setlatestopcode(35);
return(code);
}
else {
if ((1 <= arg1) && (arg1 <= 255)) {
INSN_EMIT_opcode(36);
INSN_EMIT_byte(arg1);
setlatestopcode(36);
return(code);
}
else {
if (1 <= arg1) {
INSN_EMIT_opcode(37);
INSN_EMIT_int(arg1);
setlatestopcode(37);
return(code);
}
else {
psyco_fatal_msg("invalid_mode(s_pop)");
return NULL;
}
}
}
}

DEFINEFN code_t* psyco_insn_ref_push(code_t* code, word_t arg1)
{
if ((-128 <= arg1) && (arg1 <= 127)) {
INSN_EMIT_opcode(38);
INSN_EMIT_char(arg1);
setlatestopcode(38);
return(code);
}
else {
if (1) {
INSN_EMIT_opcode(39);
INSN_EMIT_word_t(arg1);
setlatestopcode(39);
return(code);
}
else {
psyco_fatal_msg("invalid_mode(ref_push)");
return NULL;
}
}
}

DEFINEFN code_t* psyco_insn_assertdepth(code_t* code, word_t arg1)
{
if ((-128 <= arg1) && (arg1 <= 127)) {
INSN_EMIT_opcode(41);
INSN_EMIT_char(arg1);
setlatestopcode(41);
return(code);
}
else {
if (1) {
INSN_EMIT_opcode(42);
INSN_EMIT_word_t(arg1);
setlatestopcode(42);
return(code);
}
else {
psyco_fatal_msg("invalid_mode(assertdepth)");
return NULL;
}
}
}

DEFINEFN code_t* psyco_insn_dynamicfreq(code_t* code, word_t** arg1)
{
INSN_EMIT_opcode(43);
INSN_EMIT_placeholder_long(arg1);
setlatestopcode(43);
return(code);
}

DEFINEFN code_t* psyco_insn_flag_forget(code_t* code)
{
/* suffix only */
return(code);
}

DEFINEFN code_t* psyco_insn_jcondnear(code_t* code, code_t** arg1)
{
INSN_EMIT_opcode(46);
INSN_EMIT_placeholder_byte(arg1);
setlatestopcode(46);
return(code);
}

DEFINEFN code_t* psyco_insn_jcondfar(code_t* code, word_t** arg1)
{
INSN_EMIT_opcode(47);
INSN_EMIT_placeholder_long(arg1);
setlatestopcode(47);
return(code);
}

DEFINEFN code_t* psyco_insn_jumpfar(code_t* code, word_t** arg1)
{
INSN_EMIT_opcode(48);
INSN_EMIT_placeholder_long(arg1);
setlatestopcode(48);
return(code);
}

DEFINEFN code_t* psyco_insn_cbuild1(code_t* code, word_t** arg1)
{
INSN_EMIT_opcode(49);
INSN_EMIT_placeholder_long(arg1);
setlatestopcode(49);
return(code);
}

DEFINEFN code_t* psyco_insn_cbuild2(code_t* code, word_t** arg1)
{
INSN_EMIT_opcode(50);
INSN_EMIT_placeholder_long(arg1);
setlatestopcode(50);
return(code);
}

DEFINEFN code_t* psyco_insn_decrefnz(code_t* code, word_t** arg1)
{
INSN_EMIT_opcode(56);
INSN_EMIT_placeholder_long(arg1);
setlatestopcode(56);
return(code);
}

DEFINEFN code_t* psyco_insn_ret(code_t* code, int arg1)
{
if (arg1 == 0) {
INSN_EMIT_opcode(58);
INSN_EMIT_void(arg1);
setlatestopcode(58);
return(code);
}
else {
if ((1 <= arg1) && (arg1 <= 255)) {
INSN_EMIT_opcode(59);
INSN_EMIT_byte(arg1);
setlatestopcode(59);
return(code);
}
else {
if (1 <= arg1) {
INSN_EMIT_opcode(60);
INSN_EMIT_int(arg1);
setlatestopcode(60);
return(code);
}
else {
psyco_fatal_msg("invalid_mode(ret)");
return NULL;
}
}
}
}

DEFINEFN code_t* psyco_insn_pyenter(code_t* code, word_t** arg1)
{
INSN_EMIT_opcode(63);
INSN_EMIT_placeholder_long(arg1);
setlatestopcode(63);
return(code);
}

DEFINEFN code_t* psyco_insn_vmcall(code_t* code, word_t** arg1)
{
INSN_EMIT_opcode(65);
INSN_EMIT_placeholder_long(arg1);
setlatestopcode(65);
return(code);
}

DEFINEFN code_t* psyco_insn_ccall0(code_t* code, word_t** arg1)
{
INSN_EMIT_opcode(66);
INSN_EMIT_placeholder_long(arg1);
setlatestopcode(66);
return(code);
}

DEFINEFN code_t* psyco_insn_ccall1(code_t* code, word_t** arg1)
{
INSN_EMIT_opcode(67);
INSN_EMIT_placeholder_long(arg1);
setlatestopcode(67);
return(code);
}

DEFINEFN code_t* psyco_insn_ccall2(code_t* code, word_t** arg1)
{
INSN_EMIT_opcode(68);
INSN_EMIT_placeholder_long(arg1);
setlatestopcode(68);
return(code);
}

DEFINEFN code_t* psyco_insn_ccall3(code_t* code, word_t** arg1)
{
INSN_EMIT_opcode(69);
INSN_EMIT_placeholder_long(arg1);
setlatestopcode(69);
return(code);
}

DEFINEFN code_t* psyco_insn_ccall4(code_t* code, word_t** arg1)
{
INSN_EMIT_opcode(70);
INSN_EMIT_placeholder_long(arg1);
setlatestopcode(70);
return(code);
}

DEFINEFN code_t* psyco_insn_ccall5(code_t* code, word_t** arg1)
{
INSN_EMIT_opcode(71);
INSN_EMIT_placeholder_long(arg1);
setlatestopcode(71);
return(code);
}

DEFINEFN code_t* psyco_insn_ccall6(code_t* code, word_t** arg1)
{
INSN_EMIT_opcode(72);
INSN_EMIT_placeholder_long(arg1);
setlatestopcode(72);
return(code);
}

DEFINEFN code_t* psyco_insn_ccall7(code_t* code, word_t** arg1)
{
INSN_EMIT_opcode(73);
INSN_EMIT_placeholder_long(arg1);
setlatestopcode(73);
return(code);
}

DEFINEFN code_t* psyco_insn_checkdict(code_t* code, word_t** arg1, word_t** arg2, word_t** arg3, word_t** arg4)
{
INSN_EMIT_opcode(74);
INSN_EMIT_placeholder_long(arg1);
INSN_EMIT_placeholder_long(arg2);
INSN_EMIT_placeholder_long(arg3);
INSN_EMIT_placeholder_long(arg4);
setlatestopcode(74);
return(code);
}
